{
"fines_done":true,
"fines":[
{
"enable_discount":false,
"date_discount":"2019-06-14 23:59:59",
"date_decision":"2019-05-25 10:40:00",
"koap_code":"12.20",
"koap_text":"НАРУШЕНИЕ ПРАВИЛ ПОЛЬЗОВАНИЯ ВНЕШНИМИ СВЕТОВЫМИ ПРИБОРАМИ, ЗВУКОВЫМИ СИГНАЛАМИ, АВАРИЙНОЙ СИГНАЛИЗАЦИЕЙ ИЛИ ЗНАКОМ АВАРИЙНОЙ ОСТАНОВКИ",
"num_post":"18810077160006396388",
"kbk":"18811630020016000140",
"sum":500,
"division_name":"ОБ ДПС ГИБДД УВД по ВАО ГУ МВД России по г. Москве",
"division_address":"г. Москва, Измайловское ш., д. 73 Б, стр. 1",
"division_id":1145630,
"date_ssp":null,
"date_post":"2019-05-25",
"photo_available":false
},
{
"enable_discount":false,
"date_discount":"2019-07-09 23:59:59",
"date_decision":"2019-06-03 13:21:00",
"koap_code":"12.9ч.2",
"koap_text":"ПРЕВЫШЕНИЕ УСТАНОВЛЕННОЙ СКОРОСТИ ДВИЖЕНИЯ ТРАНСПОРТНОГО СРЕДСТВА НА ВЕЛИЧИНУ БОЛЕЕ 20, НО НЕ БОЛЕЕ 40 КМ/Ч",
"num_post":"18810150190619230523",
"kbk":"18811630020016000140",
"sum":500,
"division_name":"Центр видеофиксации ГИБДД ГУ МВД России по Московской области",
"division_address":"Московская обл, Одинцовский р-н, рп Большие Вяземы, ул Ямская, д 1 стр 1",
"division_id":1146511,
"date_ssp":null,
"date_post":"2019-06-19",
"photo_available":true
},
{
"enable_discount":true,
"date_discount":"2019-09-02 23:59:59",
"date_decision":"2019-08-09 04:52:00",
"koap_code":"12.9ч.2",
"koap_text":"ПРЕВЫШЕНИЕ УСТАНОВЛЕННОЙ СКОРОСТИ ДВИЖЕНИЯ ТРАНСПОРТНОГО СРЕДСТВА НА ВЕЛИЧИНУ БОЛЕЕ 20, НО НЕ БОЛЕЕ 40 КМ/Ч",
"num_post":"18810150190813983817",
"kbk":"18811630020016000140",
"sum":500,
"division_name":"Центр видеофиксации ГИБДД ГУ МВД России по Московской области",
"division_address":"Московская обл, Одинцовский р-н, рп Большие Вяземы, ул Ямская, д 1 стр 1",
"division_id":1146511,
"date_ssp":null,
"date_post":"2019-08-13",
"photo_available":true
}
]
}