<?xml version="1.0" encoding="UTF-8" standalone="no"?>
<!DOCTYPE svg PUBLIC "-//W3C//DTD SVG 1.1//EN"
"http://www.w3.org/Graphics/SVG/1.1/DTD/svg11.dtd">
<svg viewBox="0 0 935 1210" version="1.1" xmlns="http://www.w3.org/2000/svg" xmlns:xlink="http://www.w3.org/1999/xlink">
<defs>
<style type="text/css"><![CDATA[
.g0{
}
]]></style>
</defs>
<path fill-rule="evenodd" d="M503.6,20.9h91.9v1.3H503.6ZM284,33H505.1v2.8H284Zm-60.5,99.6H356.9v1.2H223.5ZM648.6,33.7h1.3v78.9h-1.3ZM431.4,131.8H650.7v2.8H431.4ZM863.5,35h1.3v77.6h-1.3Zm-640,118.8H356.9v1.3H223.5Z" class="g0"/>
<path fill-rule="evenodd" d="M594,71.9h2.7v62.7H594ZM431.4,153.1H650.7v2.7H431.4ZM222.2,132.6h1.3v22.5h-1.3Z" class="g0"/>
<path fill-rule="evenodd" d="M647.9,134.6h2.8v21.2h-2.8ZM224.2,174.3H650.7v2.8H224.2Zm0,21.3H650.7v2.8H224.2ZM281.2,33H284V57h-2.8Zm221.1,2.8h2.8V57h-2.8ZM147.8,69.1h2.7v64.2h-2.7ZM281.2,208.5H284v24h-2.8ZM150.5,292.4H284v2.8H150.5Z" class="g0"/>
<path fill-rule="evenodd" d="M428.6,131.8h2.8v45.3h-2.8Zm73.7,79.4h2.8v21.3h-2.8Zm-70.9,81.2h73.7v2.8H431.4ZM594,155.8h2.7v21.3H594Zm53.9,21.3h2.8v21.3h-2.8ZM150.5,313.7H284v2.7H150.5Z" class="g0"/>
<path d="M502.3,295.2h2.8v21.2h-2.8Z" class="g0"/>
<path fill-rule="evenodd" d="M431.4,313.7h73.7v2.7H431.4ZM147.8,292.4h2.7v24h-2.7Zm133.4,2.8H284v21.2h-2.8ZM222.7,440.9H502.3v1.3H222.7Z" class="g0"/>
<path fill-rule="evenodd" d="M503.1,316.4h1.2V440.2h-1.2Zm90.9,-24h2.7v24H594ZM505.1,440.2h91.6v2.7H505.1Zm142.8,-145h2.8v21.2h-2.8ZM743.2,132.6h1.3v65h-1.3ZM222.7,462.2H430.1v1.3H222.7Z" class="g0"/>
<path d="M502.3,440.2h2.8v24h-2.8Z" class="g0"/>
<path fill-rule="evenodd" d="M505.1,461.5h91.6v2.7H505.1ZM68.9,621.5H504.3v1.3H68.9Zm579,-181.3h2.8v24h-2.8ZM863.5,133.8h1.3v63.8h-1.3Zm-268.2,509h52.6v1.3H595.3Z" class="g0"/>
<path fill-rule="evenodd" d="M647.9,620.8h2.8v24h-2.8ZM742.5,442.9h2.8v21.3h-2.8ZM862.8,623.5h2.7v21.3h-2.7ZM149,725.6H282.7v1.3H149ZM743.2,664.8h1.3v41.4h-1.3Zm120.3,0h1.3v41.4h-1.3ZM222.7,808.5H504.3v1.3H222.7ZM149,932.4H504.3v1.3H149ZM648.6,663.5h1.3v42.7h-1.3Zm94.6,62.1h1.3V871.9h-1.3ZM503.6,1181h91.9v1.3H503.6ZM281.2,379.1H284v42.6h-2.8Z" class="g0"/>
<path fill-rule="evenodd" d="M503.1,464.2h1.2v572.5h-1.2ZM648.6,932.4h1.3v22h-1.3ZM863.5,726.9h1.3v145h-1.3ZM147.8,376.4h2.7v45.3h-2.7ZM594,442.9h2.7v21.3H594ZM221.5,174.3h2.7v24.1h-2.7ZM355.7,133.8h1.2v21.3h-1.2Zm72.9,158.6h2.8v24h-2.8ZM743.2,933.7h1.3v20.7h-1.3ZM649.2,20.9H744v1.3H649.2Zm.7,12.8H864.8V35H649.9ZM284,54.3H505.1V57H284ZM150.5,69.1H596.7v2.8H150.5Zm499.4,42.2H864.8v1.3H649.9Zm94.6,21.3H864.8v1.2H744.5Zm0,21.2H864.8v1.3H744.5Zm0,21.3H864.8v1.3H744.5Zm0,21.3H864.8v1.2H744.5ZM284,208.5H505.1v2.7H284Zm0,21.2H505.1v2.8H284Zm312.7,62.7h54v2.8h-54Zm0,21.3h54v2.7h-54ZM282.5,335.1h73.9v1.3H282.5Z" class="g0"/>
<path fill-rule="evenodd" d="M150.5,376.4H284v2.7H150.5Zm0,21.3H284v2.7H150.5Zm0,21.2H284v2.8H150.5Zm500.2,21.3h94.6v2.7H650.7Zm0,21.3h94.6v2.7H650.7Zm-55.4,55.9H864.2v1.3H595.3Zm53.9,62.1h215v1.3h-215ZM222.7,600.2H504.3v1.3H222.7Zm428,20.6H865.5v2.7H650.7Zm0,21.2H865.5v2.8H650.7Zm-.8,21.5H864.8v1.3H649.9Zm0,20.7H864.8v1.3H649.9Zm0,20.7H864.8v1.3H649.9Zm94.6,20.7H864.8v1.3H744.5Zm0,20.7H864.8v1.3H744.5ZM504.3,767.1H864.8v1.2H504.3Zm240.2,20.7H864.8v1.3H744.5ZM595.3,808.5H864.8v1.3H595.3Zm149.2,20.7H864.8v1.3H744.5ZM149,849.9H864.8v1.3H149Zm595.5,20.8H864.8v1.2H744.5Zm-94.6,61.7h94.6v1.3H649.9Zm0,20.8H864.2v1.2H649.9Zm-54.6,62.1H864.2v1.3H595.3ZM649.2,1181H744v1.3H649.2Z" class="g0"/>
</svg>